# BPM

# Common values.
CLASS = "'bpm'"
DIR = "'bpm'"
DATATYPE = "'file'"

MJD,MJDWIN1,MJDWIN2,IMAGEID,VALUE

57160,NULL,NULL,1,'bpm_150413-01.pl'
57160,NULL,NULL,2,'bpm_150413-02.pl'
57160,NULL,NULL,3,'bpm_150413-03.pl'
57160,NULL,NULL,4,'bpm_150413-04.pl'
57160,NULL,NULL,5,'bpm_150413-05.pl'
57160,NULL,NULL,6,'bpm_150413-06.pl'
57160,NULL,NULL,7,'bpm_150413-07.pl'
57160,NULL,NULL,8,'bpm_150413-08.pl'
57160,NULL,NULL,9,'bpm_150413-09.pl'
57160,NULL,NULL,10,'bpm_150413-10.pl'
57160,NULL,NULL,11,'bpm_150413-11.pl'
57160,NULL,NULL,12,'bpm_150413-12.pl'
57160,NULL,NULL,13,'bpm_150413-13.pl'
57160,NULL,NULL,14,'bpm_150413-14.pl'
57160,NULL,NULL,15,'bpm_150413-15.pl'
57160,NULL,NULL,16,'bpm_150413-16.pl'
