# Amplifier keywords to reconstruct a mosaic.

# Common values.
DATATYPE = "'keyword'"
MATCH = 1

CLASS,IMAGEID,VALUE

\'flip',1,'[*,*]'
\'flip',2,'[-*,*]'
\'flip',3,'[*,-*]'
\'flip',4,'[-*,-*]'
\'flip',5,'[*,*]'
\'flip',6,'[-*,*]'
\'flip',7,'[*,-*]'
\'flip',8,'[-*,-*]'
\'flip',9,'[*,*]'
\'flip',10,'[-*,*]'
\'flip',11,'[*,-*]'
\'flip',12,'[-*,-*]'
\'flip',13,'[*,*]'
\'flip',14,'[-*,*]'
\'flip',15,'[*,-*]'
\'flip',16,'[-*,-*]'

\'ltv1',1,0
\'ltv1',2,-2016
\'ltv1',3,0
\'ltv1',4,-2016
\'ltv1',5,-4032
\'ltv1',6,-6048
\'ltv1',7,-4032
\'ltv1',8,-6048
\'ltv1',9,0
\'ltv1',10,-2016
\'ltv1',11,0
\'ltv1',12,-2016
\'ltv1',13,-4032
\'ltv1',14,-6048
\'ltv1',15,-4032
\'ltv1',16,-6048

\'ltv2',1,0
\'ltv2',2,0
\'ltv2',3,-2048
\'ltv2',4,-2048
\'ltv2',5,0
\'ltv2',6,0
\'ltv2',7,-2048
\'ltv2',8,-2048
\'ltv2',9,-4096
\'ltv2',10,-4096
\'ltv2',11,-6144
\'ltv2',12,-6144
\'ltv2',13,-4096
\'ltv2',14,-4096
\'ltv2',15,-6144
\'ltv2',16,-6144
