# DETSEC values.

# Common values.
CLASS = "'detsec'"
DATATYPE = "'keyword'"

IMAGEID,VALUE

\'ccd1','[1:4032,1:4096]'
\'ccd2','[4033:8064,1:4096]'
\'ccd3','[1:4032,4097:8192]'
\'ccd4','[4033:8064,4097:8192]'
