# Gain values.

# Common values.
CLASS = "'gain'"
DATATYPE = "'keyword'"
MATCH = 1

IMAGEID,MJD,MJDWIN1,MJDWIN2,VALUE

\'mean',57388,NULL,NULL,1.3
\'1',57388,NULL,NULL,1.3
\'2',57388,NULL,NULL,1.3
\'3',57388,NULL,NULL,1.3
\'4',57388,NULL,NULL,1.3
\'5',57388,NULL,NULL,1.5
\'6',57388,NULL,NULL,1.5
\'7',57388,NULL,NULL,1.3
\'8',57388,NULL,NULL,1.5
\'9',57388,NULL,NULL,1.4
\'10',57388,NULL,NULL,1.4
\'11',57388,NULL,NULL,1.4
\'12',57388,NULL,NULL,1.3
\'13',57388,NULL,NULL,1.4
\'14',57388,NULL,NULL,1.3
\'15',57388,NULL,NULL,1.4
\'16',57388,NULL,NULL,1.4
