# Gain values.

# Common values.
CLASS = "'gain'"
DATATYPE = "'keyword'"
MATCH = 1

IMAGEID,MJD,MJDWIN1,MJDWIN2,VALUE

\'mean',57388,NULL,NULL,1.80
\'ccd2:B',57388,NULL,NULL,1.86
\'ccd2:A',57388,NULL,NULL,1.80
\'ccd2:D',57388,NULL,NULL,1.82
\'ccd2:C',57388,NULL,NULL,1.74
\'ccd1:B',57388,NULL,NULL,1.94
\'ccd1:A',57388,NULL,NULL,1.67
\'ccd1:D',57388,NULL,NULL,1.94
\'ccd1:C',57388,NULL,NULL,1.90
\'ccd4:C',57388,NULL,NULL,2.01
\'ccd4:D',57388,NULL,NULL,1.72
\'ccd4:A',57388,NULL,NULL,1.89
\'ccd4:B',57388,NULL,NULL,1.86
\'ccd3:C',57388,NULL,NULL,1.91
\'ccd3:D',57388,NULL,NULL,1.02
\'ccd3:A',57388,NULL,NULL,1.90
\'ccd3:B',57388,NULL,NULL,1.83
