# Read noise values.

# Common values.
CLASS = "'rdnoise'"
DATATYPE = "'keyword'"
MATCH = 1

IMAGEID,MJD,MJDWIN1,MJDWIN2,VALUE

\'ccd2:B',57388,NULL,NULL,4.44
\'ccd2:A',57388,NULL,NULL,5.55
\'ccd2:D',57388,NULL,NULL,4.91
\'ccd2:C',57388,NULL,NULL,4.85
\'ccd1:B',57388,NULL,NULL,4.62
\'ccd1:A',57388,NULL,NULL,8.27
\'ccd1:D',57388,NULL,NULL,5.02
\'ccd1:C',57388,NULL,NULL,4.97
\'ccd4:C',57388,NULL,NULL,4.83
\'ccd4:D',57388,NULL,NULL,5.96
\'ccd4:A',57388,NULL,NULL,5.06
\'ccd4:B',57388,NULL,NULL,5.06
\'ccd3:C',57388,NULL,NULL,4.11
\'ccd3:D',57388,NULL,NULL,5.46
\'ccd3:A',57388,NULL,NULL,4.27
\'ccd3:B',57388,NULL,NULL,4.03
