# Saturation values.

# Common values.
CLASS = "'saturate'"
DATATYPE = "'keyword'"
MATCH = 1

IMAGEID,MJD,MJDWIN1,MJDWIN2,VALUE

\'LBL-02:B',57388,NULL,0,28000
\'LBL-02:A',57388,NULL,0,33000
\'LBL-02:D',57388,NULL,0,26000
\'LBL-02:C',57388,NULL,0,31000
\'LBL-01:B',57388,NULL,0,38000
\'LBL-01:A',57388,NULL,0,44000
\'LBL-01:D',57388,NULL,0,40000
\'LBL-01:C',57388,NULL,0,43000
\'LBL-04:C',57388,NULL,0,42000
\'LBL-04:D',57388,NULL,0,44000
\'LBL-04:A',57388,NULL,0,44000
\'LBL-04:B',57388,NULL,0,42000
\'LBL-03:C',57388,NULL,0,38000
\'LBL-03:D',57388,NULL,0,39000
\'LBL-03:A',57388,NULL,0,41000
\'LBL-03:B',57388,NULL,0,39000

\'LBL-04 :C',57388,NULL,0,42000
\'LBL-04 :D',57388,NULL,0,43000
\'LBL-04 :A',57388,NULL,0,43000
\'LBL-04 :B',57388,NULL,0,42000

\'ccd2:B',57388,NULL,0,28000
\'ccd2:A',57388,NULL,0,33000
\'ccd2:D',57388,NULL,0,26000
\'ccd2:C',57388,NULL,0,31000
\'ccd1:B',57388,NULL,0,38000
\'ccd1:A',57388,NULL,0,44000
\'ccd1:D',57388,NULL,0,40000
\'ccd1:C',57388,NULL,0,43000
\'ccd4:C',57388,NULL,0,42000
\'ccd4:D',57388,NULL,0,44000
\'ccd4:A',57388,NULL,0,44000
\'ccd4:B',57388,NULL,0,42000
\'ccd3:C',57388,NULL,0,38000
\'ccd3:D',57388,NULL,0,39000
\'ccd3:A',57388,NULL,0,41000
\'ccd3:B',57388,NULL,0,39000

# Herrera: 2/2/6 based on data from 2016-01-25.
\'ccd2:B',57388,0,NULL,42000
\'ccd2:A',57388,0,NULL,51000
\'ccd2:D',57388,0,NULL,41000
\'ccd2:C',57388,0,NULL,47000
\'ccd1:B',57388,0,NULL,57000
\'ccd1:A',57388,0,NULL,65535
\'ccd1:D',57388,0,NULL,60000
\'ccd1:C',57388,0,NULL,64000
\'ccd4:C',57388,0,NULL,62000
\'ccd4:D',57388,0,NULL,65535
\'ccd4:A',57388,0,NULL,65535
\'ccd4:B',57388,0,NULL,65535
\'ccd3:C',57388,0,NULL,59000
\'ccd3:D',57388,0,NULL,61000
\'ccd3:A',57388,0,NULL,61000
\'ccd3:B',57388,0,NULL,60000
