1 [1:2016,1:2048]          [1:10,1:10]		[1:20,1:20]	223.89 227.45
1 [2017:4032,1:2048]       [11:20,1:10]		[1:20,1:20]	223.89 227.45
1 [1:2016,2049:4096]       [1:10,11:20]		[1:20,1:20]	223.89 227.45
1 [2017:4032,2049:4096]    [11:20,11:20]	[1:20,1:20]	223.89 227.45
2 [1:2016,1:2048]          [21:30,1:10]		[21:40,1:20]	223.89 227.45
2 [2017:4032,1:2048]       [31:40,1:10]		[21:40,1:20]	223.89 227.45
2 [1:2016,2049:4096]       [21:30,11:20]	[21:40,1:20]	223.89 227.45
2 [2017:4032,2049:4096]    [31:40,11:20]	[21:40,1:20]	223.89 227.45
3 [1:2016,1:2048]          [1:10,21:30]		[1:20,21:40]	223.89 227.45
3 [2017:4032,1:2048]       [11:20,21:30]	[1:20,21:40]	223.89 227.45
3 [1:2016,2049:4096]       [1:10,31:40]		[1:20,21:40]	223.89 227.45
3 [2017:4032,2049:4096]    [11:20,31:40]	[1:20,21:40]	223.89 227.45
4 [1:2016,1:2048]          [21:30,21:30]	[21:40,21:40]	223.89 227.45
4 [2017:4032,1:2048]       [31:40,21:30]	[21:40,21:40]	223.89 227.45
4 [1:2016,2049:4096]       [21:30,31:40]	[21:40,21:40]	223.89 227.45
4 [2017:4032,2049:4096]    [31:40,31:40]	[21:40,21:40]	223.89 227.45
