# Saturation values.

# Common values.
CLASS = "'saturate'"
DATATYPE = "'keyword'"

IMAGEID,MJD,MJDWIN1,MJDWIN2,VALUE

\'1',57388,NULL,NULL,55000
\'2',57388,NULL,NULL,55000
\'3',57388,NULL,NULL,55000
\'4',57388,NULL,NULL,55000
\'5',57388,NULL,NULL,55000
\'6',57388,NULL,NULL,55000
#\'6',57388,NULL,NULL,55000
\'7',57388,NULL,NULL,55000
\'8',57388,NULL,NULL,55000
#\'8',57388,NULL,NULL,55000
\'9',57388,NULL,NULL,55000
\'10',57388,NULL,NULL,55000
\'11',57388,NULL,NULL,55000
\'12',57388,NULL,NULL,55000
\'13',57388,NULL,NULL,55000
\'14',57388,NULL,NULL,55000
\'15',57388,NULL,NULL,55000
\'16',57388,NULL,NULL,55000
