# Starflat
# Do not use except to initialized from scratch.

# Common values.
CLASS = "'starflat'"
MJD = "57429"

IMAGEID,FILTER,VALUE

\'1','g','0.0649 0. 0. 300. 100. 5000.'
\'2','g','0.0259 0. 0. 300. 100. 5000.'
\'3','g','0.0204 0. 0. 300. 100. 5000.'
\'4','g','0.0107 0. 0. 300. 100. 5000.'
\'5','g','-0.0006 0. 0. 300. 100. 5000.'
\'6','g','-0.0349 0. 0. 300. 100. 5000.'
\'7','g','-0.0152 0. 0. 300. 100. 5000.'
\'8','g','0.0508 0. 0. 300. 100. 5000.'
\'9','g','0.0221 0. 0. 300. 100. 5000.'
\'10','g','0.0782 0. 0. 300. 100. 5000.'
\'11','g','0.0253 0. 0. 300. 100. 5000.'
\'12','g','-0.0299 0. 0. 300. 100. 5000.'
\'13','g','-0.0406 0. 0. 300. 100. 5000.'
\'14','g','0.0110 0. 0. 300. 100. 5000.'
\'15','g','-0.0364 0. 0. 300. 100. 5000.'
\'16','g','-0.0564 0. 0. 300. 100. 5000.'
