# Deal with incorrect or missing filter.

# Common values.
CLASS = "'filtalias'"
DATATYPE = "'keyword'"

MATCH,VALUE

\'d7427.0186','bokr'
\'d7427.0187','bokr'
\'d7427.0188','bokr'
\'d7427.0189','bokr'
\'d7427.0190','bokr'
\'d7454.0038','g'
\'d7454.0039','g'
\'d7454.0040','g'
\'d7454.0041','g'
\'d7454.0042','g'
\'d7454.0043','g'
\'d7454.0044','g'
\'d7454.0045','g'
\'d7454.0046','g'
\'d7454.0047','g'
\'d7454.0048','g'
\'d7454.0049','g'
\'d7454.0050','g'
\'d7454.0051','g'
\'d7454.0052','g'
\'d7454.0053','g'
\'d7454.0054','g'
\'d7454.0055','g'
\'d7454.0056','g'
\'d7454.0057','g'
\'d7487.0162','g'
\'d7487.0163','g'
\'d7487.0164','g'
\'d7487.0165','g'
\'d7487.0166','g'
\'d7487.0167','g'
\'d7516.0164','bokr'
\'d7516.0165','bokr'
\'d7516.0166','bokr'
\'d7516.0167','bokr'
\'d7516.0168','bokr'
\'d7516.0169','bokr'
\'d7516.0170','bokr'
\'d7516.0171','bokr'
\'d7516.0172','bokr'
\'d7516.0173','bokr'
\'d7516.0174','bokr'
\'d7516.0175','bokr'
\'d7516.0176','bokr'
\'d7516.0177','bokr'
\'d7516.0178','bokr'
\'d7516.0179','bokr'
\'d7516.0180','bokr'
\'d7516.0181','bokr'
\'d7516.0182','bokr'
\'d7545.0147','g'
\'d7545.0148','g'
\'d7545.0149','g'
\'d7545.0150','g'
\'d7545.0151','g'
\'d7545.0152','g'
\'d7545.0153','g'
\'d7545.0154','g'
\'d7545.0155','g'
\'d7545.0156','g'
\'d7545.0157','g'
\'d7545.0158','g'
\'d7545.0159','g'
\'d7545.0160','g'
\'d7545.0161','g'
\'d7545.0162','g'
\'d7545.0163','g'
\'d7545.0164','g'
\'d7545.0165','g'
\'d7545.0166','g'
\'d7545.0167','g'
\'d7545.0168','g'
\'d7545.0169','g'
\'d7545.0170','g'
\'d7545.0171','g'
\'d7545.0172','g'
\'d7545.0173','g'
\'d7575.0125','g'
\'d7575.0126','g'
\'d7575.0127','g'
\'d7575.0128','g'
\'d7575.0129','g'
\'d7575.0130','g'
\'d7575.0131','g'
\'d7575.0132','g'
\'d7575.0133','g'
\'d7575.0134','g'
\'d7575.0135','g'
\'d7575.0136','g'
\'d7575.0137','g'
\'d7575.0138','g'
\'d7575.0139','g'
\'d7575.0140','g'
\'d7575.0141','g'
\'d7575.0142','g'
\'d7575.0143','g'
\'d7575.0144','g'
\'d7575.0145','g'
