CP20160102/ksb_160103_062937_ood_g_ls9.fits.fz
CP20160212/ksb_160213_020322_ood_r_ls9.fits.fz
CP20160313/ksb_160314_095321_ood_g_ls9.fits.fz
CP20160602/ksb_160603_095041_ood_g_ls9.fits.fz
CP20160709/ksb_160710_090709_ood_g_ls9.fits.fz
CP20170125/ksb_170126_041546_ood_g_ls9.fits.fz
CP20170125/ksb_170126_045601_ood_g_ls9.fits.fz
CP20170125/ksb_170126_121453_ood_g_ls9.fits.fz
CP20170201/ksb_170202_053603_ood_r_ls9.fits.fz
CP20170213/ksb_170214_043324_ood_r_ls9.fits.fz
CP20170223/ksb_170224_070914_ood_g_ls9.fits.fz
CP20170321/ksb_170322_040033_ood_r_ls9.fits.fz
CP20170420/ksb_170421_054219_ood_r_ls9.fits.fz
CP20170420/ksb_170421_111813_ood_r_ls9.fits.fz
CP20170523/ksb_170524_043431_ood_g_ls9.fits.fz
CP20171125/ksb_171126_013721_ood_r_ls9.fits.fz
CP20171126/ksb_171127_101035_ood_r_ls9.fits.fz
CP20180315/ksb_180316_033313_ood_g_ls9.fits.fz
CP20180510/ksb_180511_050624_ood_g_ls9.fits.fz
CP20180522/ksb_180523_083819_ood_r_ls9.fits.fz
CP20180610/ksb_180611_093856_ood_g_ls9.fits.fz
CP20180617/ksb_180618_040920_ood_r_ls9.fits.fz
CP20180714/ksb_180715_070653_ood_g_ls9.fits.fz
CP20181213/ksb_181214_062100_ood_r_ls9.fits.fz
CP20181213/ksb_181214_062100_ood_r_v1.fits.fz
CP20190227/ksb_190228_015038_ood_g_v1.fits.fz
