CP20160111/ksb_160112_034413_ood_g_ls9.fits.fz
CP20160111/ksb_160112_034752_ood_g_ls9.fits.fz
CP20160111/ksb_160112_123417_ood_g_ls9.fits.fz
CP20160111/ksb_160112_124013_ood_g_ls9.fits.fz
CP20160111/ksb_160112_125752_ood_g_ls9.fits.fz
CP20160111/ksb_160112_130348_ood_g_ls9.fits.fz
CP20160111/ksb_160112_130943_ood_g_ls9.fits.fz
CP20160111/ksb_160112_131539_ood_g_ls9.fits.fz
CP20160111/ksb_160112_132135_ood_g_ls9.fits.fz
CP20160111/ksb_160112_132731_ood_g_ls9.fits.fz
CP20160210/ksb_160211_015029_ood_r_ls9.fits.fz
CP20160210/ksb_160211_021626_ood_g_ls9.fits.fz
CP20160210/ksb_160211_130730_ood_g_ls9.fits.fz
CP20160210/ksb_160211_131146_ood_g_ls9.fits.fz
CP20160211/ksb_160212_014707_ood_r_ls9.fits.fz
CP20160211/ksb_160212_015032_ood_r_ls9.fits.fz
CP20160211/ksb_160212_130929_ood_r_ls9.fits.fz
CP20160211/ksb_160212_131344_ood_r_ls9.fits.fz
CP20160319/ksb_160320_043326_ood_r_ls9.fits.fz
CP20160319/ksb_160320_043511_ood_r_ls9.fits.fz
CP20160319/ksb_160320_043656_ood_r_ls9.fits.fz
CP20160319/ksb_160320_043842_ood_r_ls9.fits.fz
CP20160319/ksb_160320_044028_ood_r_ls9.fits.fz
CP20160319/ksb_160320_044214_ood_r_ls9.fits.fz
CP20160319/ksb_160320_044400_ood_r_ls9.fits.fz
CP20160319/ksb_160320_044544_ood_r_ls9.fits.fz
CP20160319/ksb_160320_044730_ood_r_ls9.fits.fz
CP20160319/ksb_160320_044915_ood_r_ls9.fits.fz
CP20160319/ksb_160320_045100_ood_r_ls9.fits.fz
CP20160319/ksb_160320_045245_ood_r_ls9.fits.fz
CP20160319/ksb_160320_045430_ood_r_ls9.fits.fz
CP20160319/ksb_160320_045616_ood_r_ls9.fits.fz
CP20160319/ksb_160320_045802_ood_r_ls9.fits.fz
CP20160319/ksb_160320_045948_ood_r_ls9.fits.fz
CP20160319/ksb_160320_050133_ood_r_ls9.fits.fz
CP20160319/ksb_160320_050319_ood_r_ls9.fits.fz
CP20160319/ksb_160320_050505_ood_r_ls9.fits.fz
CP20160319/ksb_160320_050650_ood_r_ls9.fits.fz
CP20160319/ksb_160320_051943_ood_r_ls9.fits.fz
CP20160319/ksb_160320_052128_ood_r_ls9.fits.fz
CP20160319/ksb_160320_052314_ood_r_ls9.fits.fz
CP20160319/ksb_160320_052458_ood_r_ls9.fits.fz
CP20160319/ksb_160320_052644_ood_r_ls9.fits.fz
CP20160319/ksb_160320_052830_ood_r_ls9.fits.fz
CP20160319/ksb_160320_053016_ood_r_ls9.fits.fz
CP20160319/ksb_160320_053202_ood_r_ls9.fits.fz
CP20160319/ksb_160320_053346_ood_r_ls9.fits.fz
CP20160319/ksb_160320_053531_ood_r_ls9.fits.fz
CP20160319/ksb_160320_053716_ood_r_ls9.fits.fz
CP20160319/ksb_160320_053901_ood_r_ls9.fits.fz
CP20160319/ksb_160320_054045_ood_r_ls9.fits.fz
CP20160319/ksb_160320_054231_ood_r_ls9.fits.fz
CP20160319/ksb_160320_054416_ood_r_ls9.fits.fz
CP20160319/ksb_160320_054602_ood_r_ls9.fits.fz
CP20160319/ksb_160320_055359_ood_g_ls9.fits.fz
CP20160319/ksb_160320_055545_ood_g_ls9.fits.fz
CP20160319/ksb_160320_055730_ood_g_ls9.fits.fz
CP20160319/ksb_160320_055916_ood_g_ls9.fits.fz
CP20160319/ksb_160320_060102_ood_g_ls9.fits.fz
CP20160319/ksb_160320_060248_ood_g_ls9.fits.fz
CP20160319/ksb_160320_060434_ood_g_ls9.fits.fz
CP20160319/ksb_160320_060620_ood_g_ls9.fits.fz
CP20160319/ksb_160320_060806_ood_g_ls9.fits.fz
CP20160319/ksb_160320_060952_ood_g_ls9.fits.fz
CP20160319/ksb_160320_061137_ood_g_ls9.fits.fz
CP20160319/ksb_160320_061323_ood_g_ls9.fits.fz
CP20160319/ksb_160320_061509_ood_g_ls9.fits.fz
CP20160319/ksb_160320_061655_ood_g_ls9.fits.fz
CP20160319/ksb_160320_061841_ood_g_ls9.fits.fz
CP20160319/ksb_160320_062027_ood_g_ls9.fits.fz
CP20160319/ksb_160320_062213_ood_g_ls9.fits.fz
CP20160319/ksb_160320_062359_ood_g_ls9.fits.fz
CP20160319/ksb_160320_062545_ood_g_ls9.fits.fz
CP20160526/ksb_160527_044500_ood_g_ls9.fits.fz
CP20160526/ksb_160527_065414_ood_g_ls9.fits.fz
CP20160526/ksb_160527_070010_ood_g_ls9.fits.fz
CP20160526/ksb_160527_070606_ood_g_ls9.fits.fz
CP20160526/ksb_160527_071201_ood_g_ls9.fits.fz
CP20160526/ksb_160527_072123_ood_g_ls9.fits.fz
CP20160526/ksb_160527_072719_ood_g_ls9.fits.fz
CP20160526/ksb_160527_073315_ood_g_ls9.fits.fz
CP20160526/ksb_160527_073911_ood_g_ls9.fits.fz
CP20160526/ksb_160527_074507_ood_g_ls9.fits.fz
CP20160526/ksb_160527_075103_ood_g_ls9.fits.fz
CP20160526/ksb_160527_075659_ood_g_ls9.fits.fz
CP20160526/ksb_160527_080255_ood_g_ls9.fits.fz
CP20160526/ksb_160527_080851_ood_g_ls9.fits.fz
CP20160526/ksb_160527_081447_ood_g_ls9.fits.fz
CP20160526/ksb_160527_082043_ood_g_ls9.fits.fz
CP20160526/ksb_160527_082639_ood_g_ls9.fits.fz
CP20160526/ksb_160527_083235_ood_g_ls9.fits.fz
CP20160526/ksb_160527_083829_ood_g_ls9.fits.fz
CP20160526/ksb_160527_085646_ood_r_ls9.fits.fz
CP20160526/ksb_160527_100257_ood_r_ls9.fits.fz
CP20160526/ksb_160527_100353_ood_r_ls9.fits.fz
CP20160526/ksb_160527_100449_ood_r_ls9.fits.fz
CP20160526/ksb_160527_105338_ood_r_ls9.fits.fz
CP20160526/ksb_160527_105933_ood_r_ls9.fits.fz
CP20160526/ksb_160527_111234_ood_g_ls9.fits.fz
CP20170619/ksb_170620_060923_ood_g_ls9.fits.fz
CP20170620/ksb_170621_050221_ood_g_ls9.fits.fz
