/net/archive/mtn/20151111/bok23m/2015A-0801/ksb_151112_092447_ori.fits.fz
/net/archive/mtn/20151111/bok23m/2015A-0801/ksb_151112_093122_ori.fits.fz
/net/archive/mtn/20151111/bok23m/2015A-0801/ksb_151112_093634_ori.fits.fz
/net/archive/mtn/20151111/bok23m/2015A-0801/ksb_151112_094154_ori.fits.fz
/net/archive/mtn/20151111/bok23m/2015A-0801/ksb_151112_094707_ori.fits.fz
/net/archive/mtn/20151111/bok23m/2015A-0801/ksb_151112_095233_ori.fits.fz
/net/archive/mtn/20151111/bok23m/2015A-0801/ksb_151112_095748_ori.fits.fz
/net/archive/mtn/20151111/bok23m/2015A-0801/ksb_151112_100302_ori.fits.fz
/net/archive/mtn/20151111/bok23m/2015A-0801/ksb_151112_100815_ori.fits.fz
/net/archive/mtn/20151111/bok23m/2015A-0801/ksb_151112_101329_ori.fits.fz
/net/archive/mtn/20151111/bok23m/2015A-0801/ksb_151112_101804_ori.fits.fz
/net/archive/mtn/20151111/bok23m/2015A-0801/ksb_151112_103036_ori.fits.fz
/net/archive/mtn/20151111/bok23m/2015A-0801/ksb_151112_103803_ori.fits.fz
/net/archive/mtn/20151111/bok23m/2015A-0801/ksb_151112_104255_ori.fits.fz
/net/archive/mtn/20151111/bok23m/2015A-0801/ksb_151112_104810_ori.fits.fz
/net/archive/mtn/20151111/bok23m/2015A-0801/ksb_151112_105322_ori.fits.fz
/net/archive/mtn/20151111/bok23m/2015A-0801/ksb_151112_105832_ori.fits.fz
/net/archive/mtn/20151111/bok23m/2015A-0801/ksb_151112_110351_ori.fits.fz
/net/archive/mtn/20151111/bok23m/2015A-0801/ksb_151112_110841_ori.fits.fz
/net/archive/mtn/20151111/bok23m/2015A-0801/ksb_151112_111331_ori.fits.fz
/net/archive/mtn/20151111/bok23m/2015A-0801/ksb_151112_111858_ori.fits.fz
/net/archive/mtn/20151111/bok23m/2015A-0801/ksb_151112_112338_ori.fits.fz
/net/archive/mtn/20151111/bok23m/2015A-0801/ksb_151112_112824_ori.fits.fz
/net/archive/mtn/20151111/bok23m/2015A-0801/ksb_151112_113313_ori.fits.fz
/net/archive/mtn/20151111/bok23m/2015A-0801/ksb_151112_113807_ori.fits.fz
/net/archive/mtn/20151112/bok23m/2015A-0801/ksb_151113_085226_ori.fits.fz
/net/archive/mtn/20151112/bok23m/2015A-0801/ksb_151113_085827_ori.fits.fz
/net/archive/mtn/20151112/bok23m/2015A-0801/ksb_151113_090301_ori.fits.fz
/net/archive/mtn/20151112/bok23m/2015A-0801/ksb_151113_090748_ori.fits.fz
/net/archive/mtn/20151112/bok23m/2015A-0801/ksb_151113_091237_ori.fits.fz
/net/archive/mtn/20151112/bok23m/2015A-0801/ksb_151113_091731_ori.fits.fz
/net/archive/mtn/20151112/bok23m/2015A-0801/ksb_151113_092236_ori.fits.fz
/net/archive/mtn/20151112/bok23m/2015A-0801/ksb_151113_092719_ori.fits.fz
/net/archive/mtn/20151112/bok23m/2015A-0801/ksb_151113_093225_ori.fits.fz
/net/archive/mtn/20151112/bok23m/2015A-0801/ksb_151113_093706_ori.fits.fz
/net/archive/mtn/20151112/bok23m/2015A-0801/ksb_151113_094102_ori.fits.fz
/net/archive/mtn/20151112/bok23m/2015A-0801/ksb_151113_094608_ori.fits.fz
/net/archive/mtn/20151112/bok23m/2015A-0801/ksb_151113_095049_ori.fits.fz
/net/archive/mtn/20151112/bok23m/2015A-0801/ksb_151113_095449_ori.fits.fz
/net/archive/mtn/20151112/bok23m/2015A-0801/ksb_151113_095925_ori.fits.fz
/net/archive/mtn/20151112/bok23m/2015A-0801/ksb_151113_100420_ori.fits.fz
/net/archive/mtn/20151112/bok23m/2015A-0801/ksb_151113_100823_ori.fits.fz
/net/archive/mtn/20151112/bok23m/2015A-0801/ksb_151113_101214_ori.fits.fz
/net/archive/mtn/20151112/bok23m/2015A-0801/ksb_151113_102321_ori.fits.fz
/net/archive/mtn/20151112/bok23m/2015A-0801/ksb_151113_102826_ori.fits.fz
/net/archive/mtn/20151112/bok23m/2015A-0801/ksb_151113_103332_ori.fits.fz
/net/archive/mtn/20151112/bok23m/2015A-0801/ksb_151113_103838_ori.fits.fz
/net/archive/mtn/20151112/bok23m/2015A-0801/ksb_151113_104344_ori.fits.fz
/net/archive/mtn/20151112/bok23m/2015A-0801/ksb_151113_104845_ori.fits.fz
/net/archive/mtn/20151112/bok23m/2015A-0801/ksb_151113_105314_ori.fits.fz
/net/archive/mtn/20151112/bok23m/2015A-0801/ksb_151113_105737_ori.fits.fz
/net/archive/mtn/20151112/bok23m/2015A-0801/ksb_151113_110136_ori.fits.fz
/net/archive/mtn/20151112/bok23m/2015A-0801/ksb_151113_110640_ori.fits.fz
/net/archive/mtn/20151112/bok23m/2015A-0801/ksb_151113_111145_ori.fits.fz
/net/archive/mtn/20151112/bok23m/2015A-0801/ksb_151113_111551_ori.fits.fz
/net/archive/mtn/20151112/bok23m/2015A-0801/ksb_151113_112409_ori.fits.fz
/net/archive/mtn/20151112/bok23m/2015A-0801/ksb_151113_112714_ori.fits.fz
/net/archive/mtn/20151112/bok23m/2015A-0801/ksb_151113_113012_ori.fits.fz
/net/archive/mtn/20151112/bok23m/2015A-0801/ksb_151113_113303_ori.fits.fz
/net/archive/mtn/20151112/bok23m/2015A-0801/ksb_151113_113539_ori.fits.fz
/net/archive/mtn/20151112/bok23m/2015A-0801/ksb_151113_113837_ori.fits.fz
/net/archive/mtn/20151112/bok23m/2015A-0801/ksb_151113_114117_ori.fits.fz
/net/archive/mtn/20151112/bok23m/2015A-0801/ksb_151113_114408_ori.fits.fz
/net/archive/mtn/20151112/bok23m/2015A-0801/ksb_151113_114645_ori.fits.fz
/net/archive/mtn/20151112/bok23m/2015A-0801/ksb_151113_114921_ori.fits.fz
/net/archive/mtn/20151112/bok23m/2015A-0801/ksb_151113_115213_ori.fits.fz
/net/archive/mtn/20151112/bok23m/2015A-0801/ksb_151113_115453_ori.fits.fz
/net/archive/mtn/20151112/bok23m/2015A-0801/ksb_151113_115729_ori.fits.fz
/net/archive/mtn/20151112/bok23m/2015A-0801/ksb_151113_120041_ori.fits.fz
/net/archive/mtn/20151112/bok23m/2015A-0801/ksb_151113_120344_ori.fits.fz
/net/archive/mtn/20151112/bok23m/2015A-0801/ksb_151113_120628_ori.fits.fz
/net/archive/mtn/20151112/bok23m/2015A-0801/ksb_151113_120920_ori.fits.fz
/net/archive/mtn/20151112/bok23m/2015A-0801/ksb_151113_121207_ori.fits.fz
/net/archive/mtn/20151112/bok23m/2015A-0801/ksb_151113_121503_ori.fits.fz
/net/archive/mtn/20151112/bok23m/2015A-0801/ksb_151113_121807_ori.fits.fz
/net/archive/mtn/20151112/bok23m/2015A-0801/ksb_151113_122057_ori.fits.fz
/net/archive/mtn/20151112/bok23m/2015A-0801/ksb_151113_122346_ori.fits.fz
/net/archive/mtn/20151112/bok23m/2015A-0801/ksb_151113_122624_ori.fits.fz
/net/archive/mtn/20151112/bok23m/2015A-0801/ksb_151113_122900_ori.fits.fz
/net/archive/mtn/20151112/bok23m/2015A-0801/ksb_151113_123206_ori.fits.fz
/net/archive/mtn/20151112/bok23m/2015A-0801/ksb_151113_123504_ori.fits.fz
/net/archive/mtn/20151112/bok23m/2015A-0801/ksb_151113_123756_ori.fits.fz
/net/archive/mtn/20151112/bok23m/2015A-0801/ksb_151113_124040_ori.fits.fz
