# BOK WCS solutions for different FOCASVAL.

# Common values.
CLASS = "'wcsdb'"
DIR = "'wcsdb'"
DATATYPE = "'file'"

MJD,FILTER,MATCH,VALUE

57428,'g','focusvals','focusvals160209g.txt'
57428,'g','default','BASS_20160209-g-160210090441_wcs.db'
57428,'g','0.688 0.717 0.751','BASS_20160209-g-160210072930_wcs.db'
57428,'g','0.688 0.717 0.761','BASS_20160209-g-160210072217_wcs.db'
57428,'g','0.688 0.717 0.761','BASS_20160209-g-160210072450_wcs.db'
57428,'g','0.722 0.722 0.722','BASS_20160209-g-160210094133_wcs.db'
57428,'g','0.727 0.722 0.727','BASS_20160209-g-160210093922_wcs.db'
57428,'g','0.732 0.717 0.727','BASS_20160209-g-160210093710_wcs.db'
57428,'g','0.737 0.712 0.815','BASS_20160209-g-160210054821_wcs.db'
57428,'g','0.742 0.712 0.717','BASS_20160209-g-160210094344_wcs.db'
57428,'g','0.742 0.712 0.717','BASS_20160209-g-160210094557_wcs.db'
57428,'g','0.742 0.712 0.717','BASS_20160209-g-160210094811_wcs.db'
57428,'g','0.742 0.717 0.727','BASS_20160209-g-160210092934_wcs.db'
57428,'g','0.747 0.708 0.722','BASS_20160209-g-160210093205_wcs.db'
57428,'g','0.747 0.708 0.732','BASS_20160209-g-160210100340_wcs.db'
57428,'g','0.747 0.708 0.737','BASS_20160209-g-160210075208_wcs.db'
57428,'g','0.747 0.712 0.717','BASS_20160209-g-160210095025_wcs.db'
57428,'g','0.747 0.712 0.717','BASS_20160209-g-160210095710_wcs.db'
57428,'g','0.747 0.712 0.732','BASS_20160209-g-160210074956_wcs.db'
57428,'g','0.747 0.712 0.737','BASS_20160209-g-160210075420_wcs.db'
57428,'g','0.747 0.717 0.820','BASS_20160209-g-160210054432_wcs.db'
57428,'g','0.751 0.708 0.717','BASS_20160209-g-160210095239_wcs.db'
57428,'g','0.751 0.708 0.717','BASS_20160209-g-160210095455_wcs.db'
57428,'g','0.751 0.708 0.717','BASS_20160209-g-160210095927_wcs.db'
57428,'g','0.751 0.708 0.722','BASS_20160209-g-160210093419_wcs.db'
57428,'g','0.751 0.708 0.732','BASS_20160209-g-160210083347_wcs.db'
57428,'g','0.751 0.708 0.732','BASS_20160209-g-160210090018_wcs.db'
57428,'g','0.751 0.708 0.732','BASS_20160209-g-160210100553_wcs.db'
57428,'g','0.751 0.708 0.737','BASS_20160209-g-160210073206_wcs.db'
57428,'g','0.751 0.708 0.737','BASS_20160209-g-160210074257_wcs.db'
57428,'g','0.751 0.708 0.737','BASS_20160209-g-160210074547_wcs.db'
57428,'g','0.751 0.708 0.737','BASS_20160209-g-160210075631_wcs.db'
57428,'g','0.751 0.708 0.737','BASS_20160209-g-160210084446_wcs.db'
57428,'g','0.751 0.708 0.737','BASS_20160209-g-160210085552_wcs.db'
57428,'g','0.751 0.712 0.727','BASS_20160209-g-160210091759_wcs.db'
57428,'g','0.751 0.712 0.732','BASS_20160209-g-160210073946_wcs.db'
57428,'g','0.751 0.712 0.737','BASS_20160209-g-160210080308_wcs.db'
57428,'g','0.751 0.712 0.830','BASS_20160209-g-160210054036_wcs.db'
57428,'g','0.756 0.698 0.737','BASS_20160209-g-160210092501_wcs.db'
57428,'g','0.756 0.703 0.732','BASS_20160209-g-160210092029_wcs.db'
57428,'g','0.756 0.703 0.732','BASS_20160209-g-160210092245_wcs.db'
57428,'g','0.756 0.703 0.737','BASS_20160209-g-160210075844_wcs.db'
57428,'g','0.756 0.703 0.737','BASS_20160209-g-160210080519_wcs.db'
57428,'g','0.756 0.703 0.737','BASS_20160209-g-160210080729_wcs.db'
57428,'g','0.756 0.703 0.737','BASS_20160209-g-160210081618_wcs.db'
57428,'g','0.756 0.703 0.737','BASS_20160209-g-160210082040_wcs.db'
57428,'g','0.756 0.703 0.737','BASS_20160209-g-160210084025_wcs.db'
57428,'g','0.756 0.703 0.737','BASS_20160209-g-160210084912_wcs.db'
57428,'g','0.756 0.703 0.737','BASS_20160209-g-160210085340_wcs.db'
57428,'g','0.756 0.703 0.737','BASS_20160209-g-160210085805_wcs.db'
57428,'g','0.756 0.703 0.737','BASS_20160209-g-160210090653_wcs.db'
57428,'g','0.756 0.708 0.732','BASS_20160209-g-160210081153_wcs.db'
57428,'g','0.756 0.708 0.732','BASS_20160209-g-160210082713_wcs.db'
57428,'g','0.756 0.708 0.732','BASS_20160209-g-160210082924_wcs.db'
57428,'g','0.756 0.708 0.732','BASS_20160209-g-160210083811_wcs.db'
57428,'g','0.756 0.708 0.732','BASS_20160209-g-160210084236_wcs.db'
57428,'g','0.756 0.708 0.732','BASS_20160209-g-160210090229_wcs.db'
57428,'g','0.756 0.708 0.737','BASS_20160209-g-160210073439_wcs.db'
57428,'g','0.756 0.708 0.737','BASS_20160209-g-160210080056_wcs.db'
57428,'g','0.756 0.708 0.737','BASS_20160209-g-160210080941_wcs.db'
57428,'g','0.756 0.708 0.737','BASS_20160209-g-160210081405_wcs.db'
57428,'g','0.756 0.708 0.737','BASS_20160209-g-160210081828_wcs.db'
57428,'g','0.756 0.708 0.737','BASS_20160209-g-160210082250_wcs.db'
57428,'g','0.756 0.708 0.737','BASS_20160209-g-160210082501_wcs.db'
57428,'g','0.756 0.708 0.737','BASS_20160209-g-160210083136_wcs.db'
57428,'g','0.756 0.708 0.737','BASS_20160209-g-160210083600_wcs.db'
57428,'g','0.756 0.708 0.737','BASS_20160209-g-160210084701_wcs.db'
57428,'g','0.756 0.708 0.737','BASS_20160209-g-160210085127_wcs.db'
57428,'g','0.756 0.708 0.737','BASS_20160209-g-160210091120_wcs.db'
57428,'g','0.756 0.708 0.742','BASS_20160209-g-160210073713_wcs.db'
57428,'g','0.761 0.693 0.766','BASS_20160209-g-160210112639_wcs.db'
57428,'g','0.761 0.698 0.854','BASS_20160209-g-160210045354_wcs.db'
57428,'g','0.761 0.703 0.732','BASS_20160209-g-160210091332_wcs.db'
57428,'g','0.761 0.703 0.732','BASS_20160209-g-160210091545_wcs.db'
57428,'g','0.761 0.703 0.732','BASS_20160209-g-160210092716_wcs.db'
57428,'g','0.761 0.703 0.839','BASS_20160209-g-160210045949_wcs.db'
57428,'g','0.761 0.708 0.732','BASS_20160209-g-160210090441_wcs.db'
57428,'g','0.761 0.708 0.732','BASS_20160209-g-160210090906_wcs.db'
57428,'g','0.761 0.708 0.844','BASS_20160209-g-160210050253_wcs.db'
57428,'g','0.766 0.688 0.771','BASS_20160209-g-160210112903_wcs.db'
57428,'g','0.766 0.698 0.849','BASS_20160209-g-160210052305_wcs.db'
57428,'g','0.766 0.703 0.834','BASS_20160209-g-160210045646_wcs.db'
57428,'g','0.766 0.703 0.849','BASS_20160209-g-160210051118_wcs.db'
57428,'g','0.766 0.703 0.849','BASS_20160209-g-160210052007_wcs.db'
57428,'g','0.766 0.703 0.849','BASS_20160209-g-160210053609_wcs.db'
57428,'g','0.766 0.708 0.839','BASS_20160209-g-160210052849_wcs.db'
57428,'g','0.766 0.708 0.844','BASS_20160209-g-160210051408_wcs.db'
57428,'g','0.766 0.708 0.844','BASS_20160209-g-160210053253_wcs.db'
57428,'g','0.766 0.712 0.844','BASS_20160209-g-160210051704_wcs.db'
57428,'g','0.771 0.683 0.756','BASS_20160209-g-160210124032_wcs.db'
57428,'g','0.771 0.698 0.854','BASS_20160209-g-160210050831_wcs.db'
57428,'g','0.771 0.703 0.844','BASS_20160209-g-160210052612_wcs.db'
57428,'g','0.771 0.703 0.849','BASS_20160209-g-160210050542_wcs.db'
57428,'g','0.776 0.683 0.761','BASS_20160209-g-160210124243_wcs.db'
57428,'g','0.776 0.683 0.771','BASS_20160209-g-160210112113_wcs.db'
57428,'g','0.776 0.683 0.771','BASS_20160209-g-160210112347_wcs.db'
57428,'g','0.776 0.688 0.756','BASS_20160209-g-160210102829_wcs.db'
57428,'g','0.776 0.688 0.756','BASS_20160209-g-160210124454_wcs.db'
57428,'g','0.776 0.693 0.756','BASS_20160209-g-160210104415_wcs.db'
57428,'g','0.781 0.673 0.761','BASS_20160209-g-160210123804_wcs.db'
57428,'g','0.781 0.678 0.756','BASS_20160209-g-160210101933_wcs.db'
57428,'g','0.781 0.678 0.756','BASS_20160209-g-160210122459_wcs.db'
57428,'g','0.781 0.678 0.756','BASS_20160209-g-160210122709_wcs.db'
57428,'g','0.781 0.678 0.756','BASS_20160209-g-160210123132_wcs.db'
57428,'g','0.781 0.678 0.761','BASS_20160209-g-160210123343_wcs.db'
57428,'g','0.781 0.678 0.761','BASS_20160209-g-160210124705_wcs.db'
57428,'g','0.781 0.678 0.761','BASS_20160209-g-160210125338_wcs.db'
57428,'g','0.781 0.678 0.761','BASS_20160209-g-160210125800_wcs.db'
57428,'g','0.781 0.678 0.761','BASS_20160209-g-160210130222_wcs.db'
57428,'g','0.781 0.678 0.766','BASS_20160209-g-160210125549_wcs.db'
57428,'g','0.781 0.683 0.756','BASS_20160209-g-160210101031_wcs.db'
57428,'g','0.781 0.683 0.756','BASS_20160209-g-160210101721_wcs.db'
57428,'g','0.781 0.683 0.756','BASS_20160209-g-160210102616_wcs.db'
57428,'g','0.781 0.683 0.756','BASS_20160209-g-160210104202_wcs.db'
57428,'g','0.781 0.683 0.756','BASS_20160209-g-160210123555_wcs.db'
57428,'g','0.781 0.683 0.756','BASS_20160209-g-160210124916_wcs.db'
57428,'g','0.781 0.683 0.756','BASS_20160209-g-160210130010_wcs.db'
57428,'g','0.786 0.673 0.761','BASS_20160209-g-160210121825_wcs.db'
57428,'g','0.786 0.673 0.761','BASS_20160209-g-160210122035_wcs.db'
57428,'g','0.786 0.678 0.756','BASS_20160209-g-160210100805_wcs.db'
57428,'g','0.786 0.678 0.756','BASS_20160209-g-160210102402_wcs.db'
57428,'g','0.786 0.678 0.756','BASS_20160209-g-160210103258_wcs.db'
57428,'g','0.786 0.678 0.756','BASS_20160209-g-160210103515_wcs.db'
57428,'g','0.786 0.678 0.756','BASS_20160209-g-160210103945_wcs.db'
57428,'g','0.786 0.678 0.756','BASS_20160209-g-160210111542_wcs.db'
57428,'g','0.786 0.678 0.756','BASS_20160209-g-160210122246_wcs.db'
57428,'g','0.786 0.678 0.761','BASS_20160209-g-160210101250_wcs.db'
57428,'g','0.786 0.678 0.761','BASS_20160209-g-160210101504_wcs.db'
57428,'g','0.786 0.678 0.761','BASS_20160209-g-160210102146_wcs.db'
57428,'g','0.786 0.678 0.761','BASS_20160209-g-160210103043_wcs.db'
57428,'g','0.786 0.678 0.761','BASS_20160209-g-160210110006_wcs.db'
57428,'g','0.786 0.678 0.761','BASS_20160209-g-160210113121_wcs.db'
57428,'g','0.786 0.678 0.761','BASS_20160209-g-160210120942_wcs.db'
57428,'g','0.786 0.678 0.761','BASS_20160209-g-160210121155_wcs.db'
57428,'g','0.786 0.678 0.761','BASS_20160209-g-160210121616_wcs.db'
57428,'g','0.786 0.678 0.761','BASS_20160209-g-160210122920_wcs.db'
57428,'g','0.786 0.678 0.761','BASS_20160209-g-160210125127_wcs.db'
57428,'g','0.786 0.683 0.751','BASS_20160209-g-160210111758_wcs.db'
57428,'g','0.786 0.683 0.751','BASS_20160209-g-160210121405_wcs.db'
57428,'g','0.786 0.683 0.756','BASS_20160209-g-160210103730_wcs.db'
57428,'g','0.786 0.683 0.756','BASS_20160209-g-160210104628_wcs.db'
57428,'g','0.791 0.654 0.795','BASS_20160209-g-160210062854_wcs.db'
57428,'g','0.791 0.654 0.800','BASS_20160209-g-160210063820_wcs.db'
57428,'g','0.791 0.673 0.761','BASS_20160209-g-160210104844_wcs.db'
57428,'g','0.791 0.673 0.761','BASS_20160209-g-160210105056_wcs.db'
57428,'g','0.791 0.673 0.761','BASS_20160209-g-160210105308_wcs.db'
57428,'g','0.791 0.678 0.761','BASS_20160209-g-160210113603_wcs.db'
57428,'g','0.795 0.668 0.761','BASS_20160209-g-160210105522_wcs.db'
57428,'g','0.795 0.668 0.761','BASS_20160209-g-160210105735_wcs.db'
57428,'g','0.795 0.673 0.756','BASS_20160209-g-160210113343_wcs.db'
57428,'g','0.795 0.673 0.756','BASS_20160209-g-160210113844_wcs.db'
57428,'g','0.795 0.673 0.756','BASS_20160209-g-160210114148_wcs.db'
57428,'g','0.795 0.678 0.756','BASS_20160209-g-160210114452_wcs.db'
57428,'g','0.795 0.678 0.761','BASS_20160209-g-160210115048_wcs.db'
57428,'g','0.800 0.551 0.830','BASS_20160209-g-160210130638_wcs.db'
57428,'g','0.800 0.551 0.834','BASS_20160209-g-160210131053_wcs.db'
57428,'g','0.800 0.649 0.805','BASS_20160209-g-160210064146_wcs.db'
57428,'g','0.800 0.649 0.815','BASS_20160209-g-160210065210_wcs.db'
57428,'g','0.800 0.668 0.761','BASS_20160209-g-160210110905_wcs.db'
57428,'g','0.800 0.673 0.761','BASS_20160209-g-160210114815_wcs.db'
57428,'g','0.805 0.649 0.805','BASS_20160209-g-160210063313_wcs.db'
57428,'g','0.805 0.649 0.810','BASS_20160209-g-160210064542_wcs.db'
57428,'g','0.805 0.649 0.810','BASS_20160209-g-160210064844_wcs.db'
57428,'g','0.805 0.659 0.771','BASS_20160209-g-160210111333_wcs.db'
57428,'g','0.805 0.664 0.766','BASS_20160209-g-160210111123_wcs.db'
57428,'g','0.810 0.654 0.776','BASS_20160209-g-160210110233_wcs.db'
57428,'g','0.810 0.654 0.781','BASS_20160209-g-160210110444_wcs.db'
57428,'g','0.810 0.659 0.771','BASS_20160209-g-160210110656_wcs.db'
57428,'g','0.815 0.639 0.805','BASS_20160209-g-160210065531_wcs.db'
57428,'g','0.815 0.639 0.805','BASS_20160209-g-160210065817_wcs.db'
57428,'g','0.815 0.644 0.800','BASS_20160209-g-160210061626_wcs.db'
57428,'g','0.815 0.644 0.800','BASS_20160209-g-160210071940_wcs.db'
57428,'g','0.815 0.644 0.810','BASS_20160209-g-160210062452_wcs.db'
57428,'g','0.815 0.659 0.756','BASS_20160209-g-160210120732_wcs.db'
57428,'g','0.815 0.664 0.751','BASS_20160209-g-160210120311_wcs.db'
57428,'g','0.815 0.664 0.751','BASS_20160209-g-160210120523_wcs.db'
57428,'g','0.815 0.668 0.751','BASS_20160209-g-160210115639_wcs.db'
57428,'g','0.820 0.639 0.805','BASS_20160209-g-160210060711_wcs.db'
57428,'g','0.820 0.639 0.805','BASS_20160209-g-160210071432_wcs.db'
57428,'g','0.820 0.639 0.805','BASS_20160209-g-160210071705_wcs.db'
57428,'g','0.820 0.639 0.810','BASS_20160209-g-160210070942_wcs.db'
57428,'g','0.820 0.644 0.805','BASS_20160209-g-160210060256_wcs.db'
57428,'g','0.820 0.644 0.805','BASS_20160209-g-160210061231_wcs.db'
57428,'g','0.820 0.644 0.805','BASS_20160209-g-160210062002_wcs.db'
57428,'g','0.820 0.659 0.751','BASS_20160209-g-160210115427_wcs.db'
57428,'g','0.820 0.659 0.751','BASS_20160209-g-160210115849_wcs.db'
57428,'g','0.820 0.664 0.751','BASS_20160209-g-160210120058_wcs.db'
57428,'g','0.825 0.634 0.815','BASS_20160209-g-160210055821_wcs.db'
57428,'g','0.825 0.644 0.805','BASS_20160209-g-160210070705_wcs.db'
57428,'g','0.825 0.673 0.844','BASS_20160209-g-160210042515_wcs.db'
57428,'g','0.825 0.678 0.825','BASS_20160209-g-160210034140_wcs.db'
57428,'g','0.825 0.678 0.834','BASS_20160209-g-160210035104_wcs.db'
57428,'g','0.825 0.678 0.834','BASS_20160209-g-160210042208_wcs.db'
57428,'g','0.825 0.678 0.834','BASS_20160209-g-160210043409_wcs.db'
57428,'g','0.825 0.678 0.854','BASS_20160209-g-160210032820_wcs.db'
57428,'g','0.825 0.688 0.820','BASS_20160209-g-160210040950_wcs.db'
57428,'g','0.830 0.673 0.825','BASS_20160209-g-160210033140_wcs.db'
57428,'g','0.830 0.673 0.834','BASS_20160209-g-160210044212_wcs.db'
57428,'g','0.830 0.673 0.839','BASS_20160209-g-160210044733_wcs.db'
57428,'g','0.830 0.678 0.820','BASS_20160209-g-160210033503_wcs.db'
57428,'g','0.830 0.678 0.825','BASS_20160209-g-160210033818_wcs.db'
57428,'g','0.830 0.678 0.825','BASS_20160209-g-160210034749_wcs.db'
57428,'g','0.830 0.678 0.825','BASS_20160209-g-160210041840_wcs.db'
57428,'g','0.830 0.678 0.830','BASS_20160209-g-160210034451_wcs.db'
57428,'g','0.830 0.678 0.830','BASS_20160209-g-160210043117_wcs.db'
57428,'g','0.830 0.678 0.834','BASS_20160209-g-160210042843_wcs.db'
57428,'g','0.830 0.683 0.800','BASS_20160209-g-160210040311_wcs.db'
57428,'g','0.830 0.683 0.815','BASS_20160209-g-160210040001_wcs.db'
57428,'g','0.830 0.683 0.820','BASS_20160209-g-160210035402_wcs.db'
57428,'g','0.830 0.683 0.820','BASS_20160209-g-160210035704_wcs.db'
57428,'g','0.830 0.688 0.815','BASS_20160209-g-160210041235_wcs.db'
57428,'g','0.830 0.688 0.815','BASS_20160209-g-160210041548_wcs.db'
57428,'g','0.834 0.673 0.830','BASS_20160209-g-160210031817_wcs.db'
57428,'g','0.834 0.673 0.834','BASS_20160209-g-160210043936_wcs.db'
57428,'g','0.834 0.678 0.825','BASS_20160209-g-160210032140_wcs.db'
57428,'g','0.834 0.678 0.825','BASS_20160209-g-160210032459_wcs.db'
57428,'g','0.834 0.678 0.825','BASS_20160209-g-160210043645_wcs.db'
57428,'g','0.834 0.678 0.830','BASS_20160209-g-160210044451_wcs.db'
57428,'g','0.839 0.683 0.795','BASS_20160209-g-160210040648_wcs.db'
57428,'g','0.854 0.615 0.820','BASS_20160209-g-160210070430_wcs.db'
57428,'g','0.854 0.620 0.820','BASS_20160209-g-160210070158_wcs.db'
57428,'g','0.869 0.756 0.825','BASS_20160209-g-160210030727_wcs.db'
57428,'g','0.869 0.761 0.815','BASS_20160209-g-160210021746_wcs.db'
57428,'g','0.869 0.761 0.820','BASS_20160209-g-160210022214_wcs.db'
57428,'g','0.869 0.761 0.820','BASS_20160209-g-160210022711_wcs.db'
57428,'g','0.869 0.761 0.820','BASS_20160209-g-160210023136_wcs.db'
57428,'g','0.869 0.761 0.820','BASS_20160209-g-160210023955_wcs.db'
57428,'g','0.869 0.766 0.815','BASS_20160209-g-160210021346_wcs.db'
57428,'g','0.869 0.766 0.820','BASS_20160209-g-160210023619_wcs.db'
57428,'g','0.874 0.756 0.805','BASS_20160209-g-160210020126_wcs.db'
57428,'g','0.874 0.756 0.815','BASS_20160209-g-160210030026_wcs.db'
57428,'g','0.878 0.756 0.805','BASS_20160209-g-160210020552_wcs.db'
57428,'g','0.878 0.756 0.805','BASS_20160209-g-160210024656_wcs.db'
57428,'g','0.878 0.756 0.810','BASS_20160209-g-160210024324_wcs.db'
57428,'g','0.878 0.756 0.810','BASS_20160209-g-160210025017_wcs.db'
57428,'g','0.878 0.756 0.810','BASS_20160209-g-160210025355_wcs.db'
57428,'g','0.878 0.761 0.810','BASS_20160209-g-160210030401_wcs.db'
57428,'g','0.883 0.756 0.805','BASS_20160209-g-160210025708_wcs.db'
57428,'g','0.898 0.776 0.766','BASS_20160209-g-160210015033_wcs.db'
57428,'g','0.898 0.781 0.766','BASS_20160209-g-160210014724_wcs.db'
57428,'g','0.903 0.781 0.766','BASS_20160209-g-160210015245_wcs.db'
